…
```r
by_year <- group_by(noaa, year)
noaa_year <- summarize(by_year, total_damage=sum(total_damage), health_damage=sum(health_damage), fatalities=sum(fatalities), injuries=sum(injuries), refnum=length(refnum))

by_evtype <- group_by(noaa, evtype)
by_evtype <- filter(by_evtype, year>1989)
noaa_evtype <- summarize(by_evtype, total_damage=sum(total_damage), health_damage=sum(health_damage), fatalities=sum(fatalities), injuries=sum(injuries), refnum=length(refnum))

noaa_1990_2011 <- filter(noaa_evtype_year, year>1989)

arrange(filter(noaa_year, year>1989), desc(total_damage))
```

```
## # A tibble: 22 x 6
##     year total_damage health_damage fatalities injuries refnum
##    <dbl>        <dbl>         <dbl>      <dbl>    <dbl>  <int>
##  1  2006      125472.          3967        599     3368  44034
##  2  2005      100825.          2303        469     1834  39184
##  3  2004       26799.          2796        370     2426  39363
##  4  1993       21987.          2447        298     2149  12607
##  5  2011       21556.          8794       1002     7792  62174
##  6  2008       17778.          3191        488     2703  55663
##  7  1998       16111.         11864        687    11177  38128
##  8  1995       12733.          5971       1491     4480  27970
##  9  1999       12254.          6056        908     5148  31289
## 10  2001       11844.          3190        469     2721  34962
## # ... with 12 more rows
```

```r
arrange(noaa_evtype, desc(health_damage))
```

```
## # A tibble: 54 x 6
##    evtype                total_damage health_damage fatalities injuries refnum
##    <chr>                        <dbl>         <dbl>      <dbl>    <dbl>  <int>
##  1 Tornado (C)                 32532.         28515       1780    26735  29815
##  2 Heat (Z)                      925.         12400       3172     9228   3054
##  3 Thunderstorm Wind (C)       12386.          8145        546     7599 258745
##  4 Flood (C)                  150983.          7303        496     6807  26584
##  5 Lightning (C)                 946.          6049        817     5232  15767
##  6 Flash Flood (C)             28531.          2919       1052     1867  58675
##  7 Ice Storm (Z)                8986.          2449        103     2346   2151
##  8 High Wind (Z)                6814.          1924        323     1601  22433
##  9 Wildfire (Z)                 8900.          1698         90     1608   4241
## 10 Winter Storm (Z)             6782.          1570        217     1353  11447
## # ... with 44 more rows
```

```r
arrange(filter(noaa_year, year>1989), desc(refnum))
```

```
## # A tibble: 22 x 6
##     year total_damage health_damage fatalities injuries refnum
##    <dbl>        <dbl>         <dbl>      <dbl>    <dbl>  <int>
##  1  2011       21556.          8794       1002     7792  62174
##  2  2008       17778.          3191        488     2703  55663
##  3  2010       11032.          2280        425     1855  48161
##  4  2009        5749.          1687        333     1354  45817
##  5  2006      125472.          3967        599     3368  44034
##  6  2007        7480.          2612        421     2191  43289
##  7  2003       11398.          3374        443     2931  39752
##  8  2004       26799.          2796        370     2426  39363
##  9  2005      100825.          2303        469     1834  39184
## 10  1998       16111.         11864        687    11177  38128
## # ... with 12 more rows
```
…
